[{"Name":"Eggslut","Latitude":34.050655,"Longitude":-118.248795,"InstagramUserName":"@eggslut","InstagramUserId":18790254,"InstagramLoactionId":null,"TwitterUserName":"","FacebookUserName":null},
{"Name":"Guisados","Latitude":34.046632,"Longitude":-118.250726,"InstagramUserName":"@guisados","InstagramUserId":29405118,"InstagramLoactionId":null,"TwitterUserName":"","FacebookUserName":null},
{"Name":"Salt & Straw","Latitude":34.075809,"Longitude":-118.323402,"InstagramUserName":"@saltandstraw","InstagramUserId":183002827,"InstagramLoactionId":null,"TwitterUserName":"","FacebookUserName":null},
{"Name":"Sqirl","Latitude":34.084275,"Longitude":-118.286642,"InstagramUserName":"@sqirlla","InstagramUserId":4955427,"InstagramLoactionId":null,"TwitterUserName":"","FacebookUserName":null},
{"Name":"Badmaash","Latitude":34.051003,"Longitude":-118.245018,"InstagramUserName":"@badmaashla","InstagramUserId":203260730,"InstagramLoactionId":null,"TwitterUserName":"","FacebookUserName":null},
{"Name":"Botegga Louie","Latitude":34.046932,"Longitude":-118.256681,"InstagramUserName":"@bottegalouie","InstagramUserId":219328630,"InstagramLoactionId":null,"TwitterUserName":"","FacebookUserName":null},
{"Name":"Sugarfish","Latitude":34.047322,"Longitude":-118.257449,"InstagramUserName":"@sugarfishbynozawa","InstagramUserId":966497863,"InstagramLoactionId":null,"TwitterUserName":"","FacebookUserName":null},
{"Name":"Daikokuya Ramen","Latitude":34.050002,"Longitude":-118.240068,"InstagramUserName":"@daikokuya_ramen","InstagramUserId":1754000114,"InstagramLoactionId":null,"TwitterUserName":"","FacebookUserName":null},
{"Name":"Yardhouse @ LA Live","Latitude":34.04482,"Longitude":-118.265384,"InstagramUserName":null,"InstagramUserId":null,"InstagramLoactionId":26752584,"TwitterUserName":"","FacebookUserName":null},
{"Name":"Donut Friend","Latitude":34.121238,"Longitude":-118.204405,"InstagramUserName":"@donutfriend","InstagramUserId":490579557,"InstagramLoactionId":null,"TwitterUserName":"","FacebookUserName":null},
{"Name":"Stumptown coffee","Latitude":34.033257,"Longitude":-118.229876,"InstagramUserName":"@stumptowncoffee","InstagramUserId":11498596,"InstagramLoactionId":null,"TwitterUserName":"","FacebookUserName":null},
{"Name":"Shin sen gumi","Latitude":34.048279,"Longitude":-118.23896,"InstagramUserName":"@ShinSenGumiUSA","InstagramUserId":2942791303,"InstagramLoactionId":null,"TwitterUserName":"","FacebookUserName":null},
{"Name":"Pizzanista","Latitude":34.034833,"Longitude":-118.231605,"InstagramUserName":"@800degreespizza","InstagramUserId":264145867,"InstagramLoactionId":null,"TwitterUserName":"","FacebookUserName":null},
{"Name":"Tatsu ramen","Latitude":34.038896,"Longitude":-118.442452,"InstagramUserName":"@tatsuramen","InstagramUserId":448748183,"InstagramLoactionId":null,"TwitterUserName":"@tatsuramen","FacebookUserName":null},
{"Name":"The milk shop","Latitude":34.075871,"Longitude":-118.348435,"InstagramUserName":"@themilkshop_la","InstagramUserId":248390809,"InstagramLoactionId":null,"TwitterUserName":"@theMILKshop","FacebookUserName":null},
{"Name":"Bestia","Latitude":34.033794,"Longitude":-118.229273,"InstagramUserName":"@bestiadtla","InstagramUserId":227979454,"InstagramLoactionId":null,"TwitterUserName":"@bestiaDTLA","FacebookUserName":null},
{"Name":"Wurstkutche","Latitude":34.045603,"Longitude":-118.236058,"InstagramUserName":"@wurstkuche","InstagramUserId":222516979,"InstagramLoactionId":null,"TwitterUserName":"@wurstkuche","FacebookUserName":null},
{"Name":"Urth Cafe","Latitude":34.004401,"Longitude":-118.485788,"InstagramUserName":"@UrthCaffeLA","InstagramUserId":311731104,"InstagramLoactionId":null,"TwitterUserName":"","FacebookUserName":null},
{"Name":"Daily Dose Cafe","Latitude":34.035528,"Longitude":-118.233885,"InstagramUserName":"@dailydosecafe","InstagramUserId":32933935,"InstagramLoactionId":null,"TwitterUserName":"","FacebookUserName":null},
{"Name":"Go Get Em Tiger","Latitude":34.075587,"Longitude":-118.3233,"InstagramUserName":null,"InstagramUserId":null,"InstagramLoactionId":null,"TwitterUserName":"","FacebookUserName":null},
{"Name":"Diddy Riese","Latitude":34.063053,"Longitude":-118.44686,"InstagramUserName":null,"InstagramUserId":null,"InstagramLoactionId":null,"TwitterUserName":"","FacebookUserName":null},
{"Name":"The Village Bakery & Cafe","Latitude":34.12441,"Longitude":-118.267409,"InstagramUserName":null,"InstagramUserId":null,"InstagramLoactionId":null,"TwitterUserName":"","FacebookUserName":null},
{"Name":"Chego","Latitude":34.061335,"Longitude":-118.238823,"InstagramUserName":"@EatChego","InstagramUserId":1517504360,"InstagramLoactionId":null,"TwitterUserName":"","FacebookUserName":null},
{"Name":"Curry House Restaruant","Latitude":34.062701,"Longitude":-118.309472,"InstagramUserName":null,"InstagramUserId":null,"InstagramLoactionId":null,"TwitterUserName":"","FacebookUserName":null},
{"Name":"Food Haus Cafe","Latitude":34.029913,"Longitude":-118.268719,"InstagramUserName":null,"InstagramUserId":null,"InstagramLoactionId":null,"TwitterUserName":"","FacebookUserName":null},
{"Name":"Marcel Food Truck","Latitude":null,"Longitude":null,"InstagramUserName":null,"InstagramUserId":null,"InstagramLoactionId":null,"TwitterUserName":"","FacebookUserName":null},
{"Name":"Honda Ya Japanese Restaurant","Latitude":34.045274,"Longitude":-118.238492,"InstagramUserName":null,"InstagramUserId":null,"InstagramLoactionId":null,"TwitterUserName":"","FacebookUserName":null},
{"Name":"Shabu Shabu House Restaurant","Latitude":34.049164,"Longitude":-118.239901,"InstagramUserName":null,"InstagramUserId":null,"InstagramLoactionId":null,"TwitterUserName":"","FacebookUserName":null},
{"Name":"Won Kok Restaurant","Latitude":34.061787,"Longitude":-118.237417,"InstagramUserName":null,"InstagramUserId":null,"InstagramLoactionId":null,"TwitterUserName":"","FacebookUserName":null},
{"Name":"Kushi Shabu Restaurant","Latitude":34.050171,"Longitude":-118.241946,"InstagramUserName":null,"InstagramUserId":null,"InstagramLoactionId":null,"TwitterUserName":"","FacebookUserName":null},
{"Name":"Noe Restaurant and Bar","Latitude":34.052551,"Longitude":-118.250453,"InstagramUserName":null,"InstagramUserId":null,"InstagramLoactionId":null,"TwitterUserName":"","FacebookUserName":null},
{"Name":"Patina Restaurant","Latitude":34.055193,"Longitude":-118.249159,"InstagramUserName":null,"InstagramUserId":null,"InstagramLoactionId":null,"TwitterUserName":"","FacebookUserName":null},
{"Name":"Pestolini","Latitude":34.049853,"Longitude":-118.249502,"InstagramUserName":null,"InstagramUserId":null,"InstagramLoactionId":null,"TwitterUserName":"","FacebookUserName":null},
{"Name":"Octopus Japanese Restaurant","Latitude":34.048606,"Longitude":-118.258251,"InstagramUserName":null,"InstagramUserId":null,"InstagramLoactionId":null,"TwitterUserName":"","FacebookUserName":null},
{"Name":"Caffe Primo","Latitude":34.049547,"Longitude":-118.257477,"InstagramUserName":null,"InstagramUserId":null,"InstagramLoactionId":null,"TwitterUserName":"","FacebookUserName":null},
{"Name":"Demitasse","Latitude":34.049774,"Longitude":-118.24171,"InstagramUserName":null,"InstagramUserId":null,"InstagramLoactionId":null,"TwitterUserName":"","FacebookUserName":null},
{"Name":"Spear Steak and Seafood House","Latitude":34.050109,"Longitude":-118.257949,"InstagramUserName":null,"InstagramUserId":null,"InstagramLoactionId":null,"TwitterUserName":"","FacebookUserName":null},
{"Name":"Sprinkles Cupcakes","Latitude":34.069577,"Longitude":-118.406061,"InstagramUserName":null,"InstagramUserId":null,"InstagramLoactionId":null,"TwitterUserName":"","FacebookUserName":null},
{"Name":"Chado Tea Room","Latitude":34.049739,"Longitude":-118.238563,"InstagramUserName":null,"InstagramUserId":null,"InstagramLoactionId":null,"TwitterUserName":"","FacebookUserName":null},
{"Name":"Bar Ama","Latitude":34.048415,"Longitude":-118.247928,"InstagramUserName":"@bar_ama","InstagramUserId":1054780910,"InstagramLoactionId":null,"TwitterUserName":"","FacebookUserName":null},
{"Name":"Barista Society","Latitude":34.056075,"Longitude":-118.236348,"InstagramUserName":null,"InstagramUserId":null,"InstagramLoactionId":null,"TwitterUserName":"","FacebookUserName":null},
{"Name":"Juice Crafters","Latitude":34.04422,"Longitude":-118.252254,"InstagramUserName":null,"InstagramUserId":null,"InstagramLoactionId":null,"TwitterUserName":"","FacebookUserName":null},
{"Name":"Fickle Restraurant","Latitude":34.049074,"Longitude":-118.239376,"InstagramUserName":null,"InstagramUserId":null,"InstagramLoactionId":null,"TwitterUserName":"","FacebookUserName":null},
{"Name":"Mabels Chicken and Waffles","Latitude":34.041769,"Longitude":-118.259048,"InstagramUserName":null,"InstagramUserId":null,"InstagramLoactionId":null,"TwitterUserName":"","FacebookUserName":null},
{"Name":"Nick and Stefs Steakhouse","Latitude":34.052679,"Longitude":-118.252341,"InstagramUserName":null,"InstagramUserId":null,"InstagramLoactionId":null,"TwitterUserName":"","FacebookUserName":null},
{"Name":"Mortons Steakhouse","Latitude":34.049246,"Longitude":-118.261753,"InstagramUserName":null,"InstagramUserId":null,"InstagramLoactionId":null,"TwitterUserName":"","FacebookUserName":null},
{"Name":"Eastside Italian Deli","Latitude":34.06516,"Longitude":-118.246539,"InstagramUserName":null,"InstagramUserId":null,"InstagramLoactionId":null,"TwitterUserName":"","FacebookUserName":null},
{"Name":"Jist Cafe","Latitude":34.050776,"Longitude":-118.240391,"InstagramUserName":"@JistCafe","InstagramUserId":461532137,"InstagramLoactionId":null,"TwitterUserName":"","FacebookUserName":null},
{"Name":"Cafe Dulce","Latitude":34.049087,"Longitude":-118.239979,"InstagramUserName":null,"InstagramUserId":null,"InstagramLoactionId":null,"TwitterUserName":"","FacebookUserName":null},
{"Name":"Bombo","Latitude":34.050655,"Longitude":-118.248795,"InstagramUserName":null,"InstagramUserId":null,"InstagramLoactionId":null,"TwitterUserName":"","FacebookUserName":null},
{"Name":"Cafe Gratitude","Latitude":null,"Longitude":null,"InstagramUserName":null,"InstagramUserId":null,"InstagramLoactionId":null,"TwitterUserName":"","FacebookUserName":null},
{"Name":"Suehiro Cafe","Latitude":34.049885,"Longitude":-118.239762,"InstagramUserName":null,"InstagramUserId":null,"InstagramLoactionId":null,"TwitterUserName":"","FacebookUserName":null},
{"Name":"Two Guns Espresso","Latitude":33.881447,"Longitude":-118.395501,"InstagramUserName":null,"InstagramUserId":null,"InstagramLoactionId":null,"TwitterUserName":"","FacebookUserName":null},
{"Name":"Caffe Bene Wilshire","Latitude":34.062045,"Longitude":-118.293928,"InstagramUserName":null,"InstagramUserId":null,"InstagramLoactionId":null,"TwitterUserName":"","FacebookUserName":null},
{"Name":"Mcconnell's Fine Ice Cream","Latitude":34.050655,"Longitude":-118.248795,"InstagramUserName":null,"InstagramUserId":null,"InstagramLoactionId":null,"TwitterUserName":"","FacebookUserName":null},
{"Name":"Cream","Latitude":34.022799,"Longitude":-118.279838,"InstagramUserName":null,"InstagramUserId":null,"InstagramLoactionId":null,"TwitterUserName":"","FacebookUserName":null},
{"Name":"Ozero Tea & Desserts","Latitude":34.048289,"Longitude":-118.239544,"InstagramUserName":null,"InstagramUserId":null,"InstagramLoactionId":null,"TwitterUserName":"","FacebookUserName":null},
{"Name":"Four Leaf Tea & Crepes","Latitude":34.048723,"Longitude":-118.241358,"InstagramUserName":null,"InstagramUserId":null,"InstagramLoactionId":null,"TwitterUserName":"","FacebookUserName":null},
{"Name":"Fleming's Prime Steakhouse","Latitude":34.04482,"Longitude":-118.265384,"InstagramUserName":null,"InstagramUserId":null,"InstagramLoactionId":null,"TwitterUserName":"","FacebookUserName":null},
{"Name":"Philippe","Latitude":34.059721,"Longitude":-118.237025,"InstagramUserName":"@PhilippetheOG","InstagramUserId":287698280,"InstagramLoactionId":null,"TwitterUserName":"","FacebookUserName":null},
{"Name":"Aloha Cafe","Latitude":34.046928,"Longitude":-118.238942,"InstagramUserName":null,"InstagramUserId":null,"InstagramLoactionId":null,"TwitterUserName":"","FacebookUserName":null},
{"Name":"Xoia Eats","Latitude":34.077908,"Longitude":-118.259409,"InstagramUserName":null,"InstagramUserId":null,"InstagramLoactionId":null,"TwitterUserName":"","FacebookUserName":null},
{"Name":"Syrup Desserts","Latitude":34.045783,"Longitude":-118.251469,"InstagramUserName":null,"InstagramUserId":null,"InstagramLoactionId":null,"TwitterUserName":"","FacebookUserName":null},
{"Name":"Bricks and Scones","Latitude":34.077693,"Longitude":-118.324055,"InstagramUserName":null,"InstagramUserId":null,"InstagramLoactionId":null,"TwitterUserName":"","FacebookUserName":null},
{"Name":"Panini Cafe Italian & Mediterranean","Latitude":34.045237,"Longitude":-118.261132,"InstagramUserName":null,"InstagramUserId":null,"InstagramLoactionId":null,"TwitterUserName":"","FacebookUserName":null},
{"Name":"Pasta Roma","Latitude":34.025649,"Longitude":-118.27804,"InstagramUserName":null,"InstagramUserId":null,"InstagramLoactionId":null,"TwitterUserName":"","FacebookUserName":null},
{"Name":"Pitchoun Bakery & Cafe","Latitude":null,"Longitude":null,"InstagramUserName":null,"InstagramUserId":null,"InstagramLoactionId":null,"TwitterUserName":"","FacebookUserName":null},
{"Name":"The Original Pantry","Latitude":34.025649,"Longitude":-118.27804,"InstagramUserName":null,"InstagramUserId":null,"InstagramLoactionId":null,"TwitterUserName":"","FacebookUserName":"@TheOriginalPantryCafe"},
{"Name":"Vaka Burgers","Latitude":34.023862,"Longitude":-118.218098,"InstagramUserName":null,"InstagramUserId":null,"InstagramLoactionId":null,"TwitterUserName":"","FacebookUserName":"@vakaburgers"},
{"Name":"Frances Bakery & Coffee","Latitude":34.046979,"Longitude":-118.239109,"InstagramUserName":null,"InstagramUserId":null,"InstagramLoactionId":null,"TwitterUserName":"","FacebookUserName":null},
{"Name":"Peddler's Creamery","Latitude":34.046805,"Longitude":-118.247986,"InstagramUserName":null,"InstagramUserId":null,"InstagramLoactionId":null,"TwitterUserName":"","FacebookUserName":null},
{"Name":"Portofino Cucina Italiana","Latitude":34.046619,"Longitude":-118.248157,"InstagramUserName":null,"InstagramUserId":null,"InstagramLoactionId":null,"TwitterUserName":"","FacebookUserName":null},
{"Name":"Santa Monica Pier","Latitude":34.009242,"Longitude":-118.497604,"InstagramUserName":null,"InstagramUserId":null,"InstagramLoactionId":null,"TwitterUserName":"","FacebookUserName":null},
{"Name":"Museum of Contemporary Art","Latitude":34.063791,"Longitude":-118.358885,"InstagramUserName":null,"InstagramUserId":null,"InstagramLoactionId":null,"TwitterUserName":"","FacebookUserName":null},
{"Name":"Walt Disney Concert Hall","Latitude":34.055436,"Longitude":-118.24994,"InstagramUserName":null,"InstagramUserId":null,"InstagramLoactionId":null,"TwitterUserName":"","FacebookUserName":null},
{"Name":"Los Angeles River","Latitude":null,"Longitude":null,"InstagramUserName":null,"InstagramUserId":null,"InstagramLoactionId":null,"TwitterUserName":"","FacebookUserName":null},
{"Name":"Hollywood Walk of Fame","Latitude":null,"Longitude":null,"InstagramUserName":null,"InstagramUserId":null,"InstagramLoactionId":null,"TwitterUserName":"","FacebookUserName":null},
{"Name":"Ace Hotel","Latitude":34.041877,"Longitude":-118.257034,"InstagramUserName":null,"InstagramUserId":null,"InstagramLoactionId":null,"TwitterUserName":"","FacebookUserName":null},
{"Name":"Hollywood Sign","Latitude":34.134115,"Longitude":-118.321548,"InstagramUserName":null,"InstagramUserId":null,"InstagramLoactionId":null,"TwitterUserName":"","FacebookUserName":null},
{"Name":"Hollywood Bowl","Latitude":34.112739,"Longitude":-118.338856,"InstagramUserName":null,"InstagramUserId":null,"InstagramLoactionId":null,"TwitterUserName":"","FacebookUserName":null},
{"Name":"LAX","Latitude":33.94224,"Longitude":-118.402795,"InstagramUserName":null,"InstagramUserId":null,"InstagramLoactionId":null,"TwitterUserName":"","FacebookUserName":null},
{"Name":"Bradbury Building","Latitude":34.050544,"Longitude":-118.247843,"InstagramUserName":null,"InstagramUserId":null,"InstagramLoactionId":null,"TwitterUserName":"","FacebookUserName":null},
{"Name":"The Griffith Observatory","Latitude":34.118375,"Longitude":-118.300354,"InstagramUserName":null,"InstagramUserId":null,"InstagramLoactionId":null,"TwitterUserName":"","FacebookUserName":null},
{"Name":"Dodger Stadium","Latitude":34.074566,"Longitude":-118.240855,"InstagramUserName":null,"InstagramUserId":null,"InstagramLoactionId":null,"TwitterUserName":"","FacebookUserName":null},
{"Name":"Republique","Latitude":34.064178,"Longitude":-118.343679,"InstagramUserName":"@republiqueLA","InstagramUserId":462719949,"InstagramLoactionId":null,"TwitterUserName":"","FacebookUserName":null},
{"Name":"The Ivy Restaruant","Latitude":34.075707,"Longitude":-118.384115,"InstagramUserName":null,"InstagramUserId":null,"InstagramLoactionId":null,"TwitterUserName":"","FacebookUserName":null},
{"Name":"The Roof on Wilshire","Latitude":34.063887,"Longitude":-118.36601,"InstagramUserName":null,"InstagramUserId":null,"InstagramLoactionId":null,"TwitterUserName":"","FacebookUserName":null},
{"Name":"EMC Seafood and Raw Bar","Latitude":34.063138,"Longitude":-118.298559,"InstagramUserName":null,"InstagramUserId":null,"InstagramLoactionId":null,"TwitterUserName":"","FacebookUserName":null},
{"Name":"Pinks Hot Dogs","Latitude":34.083867,"Longitude":-118.344314,"InstagramUserName":null,"InstagramUserId":null,"InstagramLoactionId":null,"TwitterUserName":"","FacebookUserName":null},
{"Name":"Cecconi's Italian Restaruant","Latitude":34.080575,"Longitude":-118.384964,"InstagramUserName":null,"InstagramUserId":null,"InstagramLoactionId":null,"TwitterUserName":"","FacebookUserName":null},
{"Name":"Yamashiro","Latitude":34.105866,"Longitude":-118.342155,"InstagramUserName":null,"InstagramUserId":null,"InstagramLoactionId":null,"TwitterUserName":"","FacebookUserName":null},
{"Name":"In N Out Burger","Latitude":null,"Longitude":null,"InstagramUserName":null,"InstagramUserId":null,"InstagramLoactionId":null,"TwitterUserName":"","FacebookUserName":null},
{"Name":"Larchmont Bungalow","Latitude":34.073327,"Longitude":-118.323903,"InstagramUserName":null,"InstagramUserId":null,"InstagramLoactionId":null,"TwitterUserName":"","FacebookUserName":null},
{"Name":"Mohawk Bend","Latitude":34.077664,"Longitude":-118.26479,"InstagramUserName":null,"InstagramUserId":null,"InstagramLoactionId":null,"TwitterUserName":"","FacebookUserName":null},
{"Name":"Lawry's Cavery","Latitude":34.044126,"Longitude":-118.265291,"InstagramUserName":null,"InstagramUserId":null,"InstagramLoactionId":null,"TwitterUserName":"","FacebookUserName":null},
{"Name":"Blue Jam Cafe","Latitude":34.08381,"Longitude":-118.350534,"InstagramUserName":null,"InstagramUserId":null,"InstagramLoactionId":null,"TwitterUserName":"","FacebookUserName":null},
{"Name":"Kang Ho Dong Baek Jeong","Latitude":34.063733,"Longitude":-118.297282,"InstagramUserName":null,"InstagramUserId":null,"InstagramLoactionId":null,"TwitterUserName":"","FacebookUserName":null},
{"Name":"Fig and Olive","Latitude":34.083446,"Longitude":-118.376138,"InstagramUserName":null,"InstagramUserId":null,"InstagramLoactionId":null,"TwitterUserName":"","FacebookUserName":null},
{"Name":"Peking Tavern","Latitude":34.042762,"Longitude":-118.253651,"InstagramUserName":null,"InstagramUserId":null,"InstagramLoactionId":null,"TwitterUserName":"","FacebookUserName":null},
{"Name":"Pizzeria Mozza","Latitude":34.083092,"Longitude":-118.338798,"InstagramUserName":null,"InstagramUserId":null,"InstagramLoactionId":null,"TwitterUserName":"","FacebookUserName":null},
{"Name":"Katsuya","Latitude":34.045608,"Longitude":-118.266247,"InstagramUserName":null,"InstagramUserId":null,"InstagramLoactionId":null,"TwitterUserName":"","FacebookUserName":null},
{"Name":"Toast Bakery Cafe","Latitude":34.072683,"Longitude":-118.368838,"InstagramUserName":null,"InstagramUserId":null,"InstagramLoactionId":null,"TwitterUserName":"","FacebookUserName":null},
{"Name":"Providence","Latitude":34.083462,"Longitude":-118.333042,"InstagramUserName":null,"InstagramUserId":null,"InstagramLoactionId":null,"TwitterUserName":"","FacebookUserName":null},
{"Name":"Sushi Gen","Latitude":34.046998,"Longitude":-118.238492,"InstagramUserName":null,"InstagramUserId":null,"InstagramLoactionId":null,"TwitterUserName":"","FacebookUserName":null},
{"Name":"The Original Ramen Burger","Latitude":33.927323,"Longitude":-118.291966,"InstagramUserName":null,"InstagramUserId":null,"InstagramLoactionId":null,"TwitterUserName":"","FacebookUserName":null},
{"Name":"California Donuts","Latitude":34.068949,"Longitude":-118.317209,"InstagramUserName":null,"InstagramUserId":null,"InstagramLoactionId":null,"TwitterUserName":"","FacebookUserName":null},
{"Name":"Sustain Juicery","Latitude":34.068949,"Longitude":-118.317209,"InstagramUserName":null,"InstagramUserId":null,"InstagramLoactionId":null,"TwitterUserName":"","FacebookUserName":null},
{"Name":"Green Grotto Juice Bar","Latitude":34.046507,"Longitude":-118.250715,"InstagramUserName":null,"InstagramUserId":null,"InstagramLoactionId":null,"TwitterUserName":"","FacebookUserName":null},
{"Name":"Tony's Saloon","Latitude":34.034712,"Longitude":-118.231634,"InstagramUserName":null,"InstagramUserId":null,"InstagramLoactionId":null,"TwitterUserName":"","FacebookUserName":null},
{"Name":"Water Grill","Latitude":34.04904,"Longitude":-118.254707,"InstagramUserName":null,"InstagramUserId":null,"InstagramLoactionId":null,"TwitterUserName":"","FacebookUserName":null},
{"Name":"ZenCu shi & Grill","Latitude":34.049432,"Longitude":-118.240589,"InstagramUserName":null,"InstagramUserId":null,"InstagramLoactionId":null,"TwitterUserName":"","FacebookUserName":null},
{"Name":"Bay cities","Latitude":34.017985,"Longitude":-118.489202,"InstagramUserName":null,"InstagramUserId":null,"InstagramLoactionId":null,"TwitterUserName":"","FacebookUserName":null},
{"Name":"Café Gratitude","Latitude":34.082818,"Longitude":-118.324159,"InstagramUserName":null,"InstagramUserId":null,"InstagramLoactionId":null,"TwitterUserName":"","FacebookUserName":null},
{"Name":"Roscoe's House of Chicken and Waffles","Latitude":34.047604,"Longitude":-118.346247,"InstagramUserName":null,"InstagramUserId":null,"InstagramLoactionId":null,"TwitterUserName":"","FacebookUserName":null},
{"Name":"Intelligentsia Coffee","Latitude":34.110419,"Longitude":-118.242428,"InstagramUserName":null,"InstagramUserId":null,"InstagramLoactionId":null,"TwitterUserName":"","FacebookUserName":null},
{"Name":"Raffi's Place","Latitude":34.146568,"Longitude":-118.253397,"InstagramUserName":null,"InstagramUserId":null,"InstagramLoactionId":null,"TwitterUserName":"","FacebookUserName":null},
{"Name":"Coolhaus","Latitude":34.030211,"Longitude":-118.381389,"InstagramUserName":null,"InstagramUserId":null,"InstagramLoactionId":null,"TwitterUserName":"","FacebookUserName":null},
{"Name":"Tsujita","Latitude":34.040114,"Longitude":-118.442583,"InstagramUserName":null,"InstagramUserId":null,"InstagramLoactionId":null,"TwitterUserName":"","FacebookUserName":null},
{"Name":"Malibu Farm","Latitude":34.025838,"Longitude":-118.675638,"InstagramUserName":null,"InstagramUserId":null,"InstagramLoactionId":null,"TwitterUserName":"","FacebookUserName":null},
{"Name":"DK's Donuts","Latitude":null,"Longitude":-118.483386,"InstagramUserName":null,"InstagramUserId":null,"InstagramLoactionId":null,"TwitterUserName":"","FacebookUserName":null},
{"Name":"Wexler's Deli","Latitude":34.050629,"Longitude":-118.248696,"InstagramUserName":null,"InstagramUserId":null,"InstagramLoactionId":null,"TwitterUserName":"","FacebookUserName":null},
{"Name":"Pizzeria Mozza","Latitude":34.083102,"Longitude":-118.338867,"InstagramUserName":null,"InstagramUserId":null,"InstagramLoactionId":null,"TwitterUserName":"","FacebookUserName":null},
{"Name":"Kreation","Latitude":33.991213,"Longitude":-118.469103,"InstagramUserName":null,"InstagramUserId":null,"InstagramLoactionId":null,"TwitterUserName":"","FacebookUserName":null},
{"Name":"Republique","Latitude":34.064128,"Longitude":-118.343729,"InstagramUserName":null,"InstagramUserId":null,"InstagramLoactionId":null,"TwitterUserName":"","FacebookUserName":null},
{"Name":"Earthbar","Latitude":34.048548,"Longitude":-118.254658,"InstagramUserName":null,"InstagramUserId":null,"InstagramLoactionId":null,"TwitterUserName":"","FacebookUserName":null},
{"Name":"Pink's Hot Dogs","Latitude":34.083846,"Longitude":-118.344281,"InstagramUserName":null,"InstagramUserId":null,"InstagramLoactionId":null,"TwitterUserName":"","FacebookUserName":null},
{"Name":"Il Pastaio","Latitude":34.070868,"Longitude":-118.400771,"InstagramUserName":null,"InstagramUserId":null,"InstagramLoactionId":null,"TwitterUserName":"","FacebookUserName":null},
{"Name":"Joan's On Third","Latitude":34.072629,"Longitude":-118.371847,"InstagramUserName":null,"InstagramUserId":null,"InstagramLoactionId":null,"TwitterUserName":"","FacebookUserName":null},
{"Name":"Blue Plate Taco","Latitude":34.012564,"Longitude":-118.495933,"InstagramUserName":null,"InstagramUserId":null,"InstagramLoactionId":null,"TwitterUserName":"","FacebookUserName":null},
{"Name":"venice beach","Latitude":33.993615,"Longitude":-118.47991,"InstagramUserName":null,"InstagramUserId":null,"InstagramLoactionId":null,"TwitterUserName":"","FacebookUserName":null},
{"Name":"getty center","Latitude":34.082446,"Longitude":-118.475543,"InstagramUserName":null,"InstagramUserId":null,"InstagramLoactionId":null,"TwitterUserName":"","FacebookUserName":null},
{"Name":"the staples center","Latitude":34.043018,"Longitude":-118.267254,"InstagramUserName":null,"InstagramUserId":null,"InstagramLoactionId":null,"TwitterUserName":"","FacebookUserName":null},
{"Name":"the forum","Latitude":33.95821,"Longitude":-118.341899,"InstagramUserName":null,"InstagramUserId":null,"InstagramLoactionId":null,"TwitterUserName":"","FacebookUserName":null},
{"Name":"hollywood palladium","Latitude":34.098554,"Longitude":-118.324255,"InstagramUserName":null,"InstagramUserId":null,"InstagramLoactionId":null,"TwitterUserName":"","FacebookUserName":null},
{"Name":"greek theatre","Latitude":34.101588,"Longitude":-118.333641,"InstagramUserName":null,"InstagramUserId":null,"InstagramLoactionId":null,"TwitterUserName":"","FacebookUserName":null},
{"Name":"Dodger Stadium","Latitude":34.073851,"Longitude":-118.239958,"InstagramUserName":null,"InstagramUserId":null,"InstagramLoactionId":null,"TwitterUserName":"","FacebookUserName":null},
{"Name":"the coliseum","Latitude":34.014056,"Longitude":-118.28806,"InstagramUserName":null,"InstagramUserId":null,"InstagramLoactionId":null,"TwitterUserName":"","FacebookUserName":null},
{"Name":"the rosebowl","Latitude":34.161328,"Longitude":-118.167646,"InstagramUserName":null,"InstagramUserId":null,"InstagramLoactionId":null,"TwitterUserName":"","FacebookUserName":null},
{"Name":"angel stadium","Latitude":33.800308,"Longitude":-117.882732,"InstagramUserName":null,"InstagramUserId":null,"InstagramLoactionId":null,"TwitterUserName":"","FacebookUserName":null},
{"Name":"griffith park","Latitude":34.136554,"Longitude":-118.2942,"InstagramUserName":null,"InstagramUserId":null,"InstagramLoactionId":null,"TwitterUserName":"","FacebookUserName":null},
{"Name":"kenneth hahn state recreation","Latitude":34.007831,"Longitude":-118.364163,"InstagramUserName":null,"InstagramUserId":null,"InstagramLoactionId":null,"TwitterUserName":"","FacebookUserName":null},
{"Name":"tongva park","Latitude":34.01112,"Longitude":-118.493241,"InstagramUserName":null,"InstagramUserId":null,"InstagramLoactionId":null,"TwitterUserName":"","FacebookUserName":null},
{"Name":"echo park lake","Latitude":34.072873,"Longitude":-118.260519,"InstagramUserName":null,"InstagramUserId":null,"InstagramLoactionId":null,"TwitterUserName":"","FacebookUserName":null},
{"Name":"silver lake res","Latitude":34.097819,"Longitude":-118.265087,"InstagramUserName":null,"InstagramUserId":null,"InstagramLoactionId":null,"TwitterUserName":"","FacebookUserName":null},
{"Name":"macarthur park","Latitude":34.060214,"Longitude":-118.277023,"InstagramUserName":null,"InstagramUserId":null,"InstagramLoactionId":null,"TwitterUserName":"","FacebookUserName":null},
{"Name":"elysian park","Latitude":34.060214,"Longitude":-118.277023,"InstagramUserName":null,"InstagramUserId":null,"InstagramLoactionId":null,"TwitterUserName":"","FacebookUserName":null},
{"Name":"sunset strip","Latitude":34.091287,"Longitude":-118.37943,"InstagramUserName":null,"InstagramUserId":null,"InstagramLoactionId":null,"TwitterUserName":"","FacebookUserName":null},
{"Name":"hollywood blvd","Latitude":34.101588,"Longitude":-118.333641,"InstagramUserName":null,"InstagramUserId":null,"InstagramLoactionId":null,"TwitterUserName":"","FacebookUserName":null},
{"Name":"melrose ave","Latitude":34.083462,"Longitude":-118.333042,"InstagramUserName":null,"InstagramUserId":null,"InstagramLoactionId":null,"TwitterUserName":"","FacebookUserName":null},
{"Name":"third st","Latitude":34.013631,"Longitude":-118.49379,"InstagramUserName":null,"InstagramUserId":null,"InstagramLoactionId":null,"TwitterUserName":"","FacebookUserName":null},
{"Name":"LA live","Latitude":34.044763,"Longitude":-118.265429,"InstagramUserName":null,"InstagramUserId":null,"InstagramLoactionId":null,"TwitterUserName":"","FacebookUserName":null},
{"Name":"santa monica ocean & santa monica","Latitude":34.019454,"Longitude":-118.491191,"InstagramUserName":null,"InstagramUserId":null,"InstagramLoactionId":null,"TwitterUserName":"","FacebookUserName":null},
{"Name":"Abbot Kinney Blvd Venice","Latitude":33.989914,"Longitude":-118.463797,"InstagramUserName":"@abbotkinneyblvd","InstagramUserId":597968043,"InstagramLoactionId":null,"TwitterUserName":"","FacebookUserName":null},
{"Name":"cahuenga corridor","Latitude":null,"Longitude":null,"InstagramUserName":null,"InstagramUserId":null,"InstagramLoactionId":null,"TwitterUserName":"","FacebookUserName":null},
{"Name":"hermosa beach","Latitude":33.862237,"Longitude":-118.399519,"InstagramUserName":null,"InstagramUserId":null,"InstagramLoactionId":null,"TwitterUserName":"","FacebookUserName":null},
{"Name":"DTLB","Latitude":33.774144,"Longitude":-118.193729,"InstagramUserName":null,"InstagramUserId":null,"InstagramLoactionId":null,"TwitterUserName":"","FacebookUserName":null},
{"Name":"2nd street LB","Latitude":33.795013,"Longitude":-118.227887,"InstagramUserName":null,"InstagramUserId":null,"InstagramLoactionId":null,"TwitterUserName":"","FacebookUserName":null},
{"Name":"California donut","Latitude":34.068779,"Longitude":-118.293122,"InstagramUserName":null,"InstagramUserId":null,"InstagramLoactionId":null,"TwitterUserName":"","FacebookUserName":null},
{"Name":"Perch","Latitude":34.049002,"Longitude":-118.251408,"InstagramUserName":"@PERCHLosAngeles","InstagramUserId":246346875,"InstagramLoactionId":null,"TwitterUserName":"","FacebookUserName":null},
{"Name":"San pedro fish market","Latitude":34.049002,"Longitude":-118.251408,"InstagramUserName":null,"InstagramUserId":null,"InstagramLoactionId":null,"TwitterUserName":"","FacebookUserName":null},
{"Name":"Providence","Latitude":33.733625,"Longitude":-118.277388,"InstagramUserName":null,"InstagramUserId":null,"InstagramLoactionId":null,"TwitterUserName":"","FacebookUserName":null},
{"Name":"Spago","Latitude":34.067595,"Longitude":-118.397645,"InstagramUserName":null,"InstagramUserId":null,"InstagramLoactionId":null,"TwitterUserName":"","FacebookUserName":null},
{"Name":"Trios Mec","Latitude":34.08424,"Longitude":-118.338111,"InstagramUserName":null,"InstagramUserId":null,"InstagramLoactionId":null,"TwitterUserName":"","FacebookUserName":null},
{"Name":"Rustic Canyon","Latitude":34.025054,"Longitude":-118.491271,"InstagramUserName":null,"InstagramUserId":null,"InstagramLoactionId":null,"TwitterUserName":"","FacebookUserName":null},
{"Name":"Lucques","Latitude":34.082333,"Longitude":-118.375404,"InstagramUserName":null,"InstagramUserId":null,"InstagramLoactionId":null,"TwitterUserName":"","FacebookUserName":null},
{"Name":"Lukshon","Latitude":34.030007,"Longitude":-118.384413,"InstagramUserName":null,"InstagramUserId":null,"InstagramLoactionId":null,"TwitterUserName":"","FacebookUserName":null},
{"Name":"Animal","Latitude":34.07923,"Longitude":-118.361772,"InstagramUserName":null,"InstagramUserId":null,"InstagramLoactionId":null,"TwitterUserName":"","FacebookUserName":null},
{"Name":"Q sushi","Latitude":34.097623,"Longitude":-118.335848,"InstagramUserName":null,"InstagramUserId":null,"InstagramLoactionId":null,"TwitterUserName":"","FacebookUserName":null},
{"Name":"Guerrilla Tacos","Latitude":34.045701,"Longitude":-118.235316,"InstagramUserName":null,"InstagramUserId":null,"InstagramLoactionId":null,"TwitterUserName":"","FacebookUserName":null},
{"Name":"n/naka","Latitude":34.025125,"Longitude":-118.412216,"InstagramUserName":null,"InstagramUserId":null,"InstagramLoactionId":null,"TwitterUserName":"","FacebookUserName":null},
{"Name":"Ink","Latitude":34.083375,"Longitude":-118.372477,"InstagramUserName":null,"InstagramUserId":null,"InstagramLoactionId":null,"TwitterUserName":"","FacebookUserName":null},
{"Name":"Night + Market Song","Latitude":34.086907,"Longitude":-118.275843,"InstagramUserName":null,"InstagramUserId":null,"InstagramLoactionId":null,"TwitterUserName":"","FacebookUserName":null},
{"Name":"Odyas + penelope","Latitude":34.072701,"Longitude":-118.344324,"InstagramUserName":null,"InstagramUserId":null,"InstagramLoactionId":null,"TwitterUserName":"","FacebookUserName":null},
{"Name":"AOC","Latitude":34.07341,"Longitude":-118.381973,"InstagramUserName":null,"InstagramUserId":null,"InstagramLoactionId":null,"TwitterUserName":"","FacebookUserName":null},
{"Name":"Orsa + Winston","Latitude":34.048374,"Longitude":-118.247991,"InstagramUserName":null,"InstagramUserId":null,"InstagramLoactionId":null,"TwitterUserName":"","FacebookUserName":null},
{"Name":"Maude","Latitude":34.064734,"Longitude":-118.398911,"InstagramUserName":null,"InstagramUserId":null,"InstagramLoactionId":null,"TwitterUserName":"","FacebookUserName":null},
{"Name":"Grand Central Market","Latitude":34.050881,"Longitude":-118.249025,"InstagramUserName":"@grandcentralmarketla","InstagramUserId":599894690,"InstagramLoactionId":null,"TwitterUserName":"","FacebookUserName":null},
{"Name":"Chengdu Taste","Latitude":34.077832,"Longitude":-118.132443,"InstagramUserName":null,"InstagramUserId":null,"InstagramLoactionId":null,"TwitterUserName":"","FacebookUserName":null},
{"Name":"The tasting Kitchen","Latitude":33.989709,"Longitude":-118.463098,"InstagramUserName":null,"InstagramUserId":null,"InstagramLoactionId":null,"TwitterUserName":"","FacebookUserName":null},
{"Name":"The Factory Kitchen","Latitude":34.038899,"Longitude":-118.235913,"InstagramUserName":null,"InstagramUserId":null,"InstagramLoactionId":null,"TwitterUserName":"","FacebookUserName":null},
{"Name":"Le comptoir","Latitude":34.063301,"Longitude":-118.300725,"InstagramUserName":null,"InstagramUserId":null,"InstagramLoactionId":null,"TwitterUserName":"","FacebookUserName":null},
{"Name":"Redbird","Latitude":34.050483,"Longitude":-118.244042,"InstagramUserName":null,"InstagramUserId":null,"InstagramLoactionId":null,"TwitterUserName":"","FacebookUserName":null},
{"Name":"Pot bar","Latitude":34.061945,"Longitude":-118.301017,"InstagramUserName":null,"InstagramUserId":null,"InstagramLoactionId":null,"TwitterUserName":"","FacebookUserName":null},
{"Name":"Universal studios Hollywood","Latitude":34.138117,"Longitude":-118.353378,"InstagramUserName":null,"InstagramUserId":null,"InstagramLoactionId":null,"TwitterUserName":"","FacebookUserName":null},
{"Name":"USC","Latitude":34.022352,"Longitude":-118.285117,"InstagramUserName":null,"InstagramUserId":null,"InstagramLoactionId":null,"TwitterUserName":"","FacebookUserName":null},
{"Name":"UCLA","Latitude":34.022352,"Longitude":-118.285117,"InstagramUserName":null,"InstagramUserId":null,"InstagramLoactionId":null,"TwitterUserName":"","FacebookUserName":null},
{"Name":"Loyola Marymount","Latitude":33.970417,"Longitude":-118.417405,"InstagramUserName":null,"InstagramUserId":null,"InstagramLoactionId":null,"TwitterUserName":"","FacebookUserName":null},
{"Name":"Cal state LA","Latitude":34.065418,"Longitude":-118.172109,"InstagramUserName":null,"InstagramUserId":null,"InstagramLoactionId":null,"TwitterUserName":"","FacebookUserName":null},
{"Name":"Cal State Long Beach","Latitude":33.775138,"Longitude":-118.114928,"InstagramUserName":null,"InstagramUserId":null,"InstagramLoactionId":null,"TwitterUserName":"","FacebookUserName":null},
{"Name":"Hollywood Sign","Latitude":34.134115,"Longitude":-118.321548,"InstagramUserName":null,"InstagramUserId":null,"InstagramLoactionId":null,"TwitterUserName":"","FacebookUserName":null},
{"Name":"The Greek theatre","Latitude":34.120559,"Longitude":-118.296392,"InstagramUserName":null,"InstagramUserId":null,"InstagramLoactionId":null,"TwitterUserName":"","FacebookUserName":null},
{"Name":"Angel City brewery","Latitude":34.046261,"Longitude":-118.237693,"InstagramUserName":"@AngelCityBeer","InstagramUserId":201996130,"InstagramLoactionId":null,"TwitterUserName":"","FacebookUserName":null},
{"Name":"High Rooftop Lounge","Latitude":33.986956,"Longitude":-118.47245,"InstagramUserName":null,"InstagramUserId":null,"InstagramLoactionId":null,"TwitterUserName":"","FacebookUserName":null},
{"Name":"Bar Marmont","Latitude":34.0982,"Longitude":-118.367389,"InstagramUserName":null,"InstagramUserId":null,"InstagramLoactionId":null,"TwitterUserName":"","FacebookUserName":null},
{"Name":"Whiskey blue","Latitude":34.06335,"Longitude":-118.440875,"InstagramUserName":null,"InstagramUserId":null,"InstagramLoactionId":null,"TwitterUserName":"","FacebookUserName":null},
{"Name":"The Federal Bar","Latitude":34.167156,"Longitude":-118.376339,"InstagramUserName":null,"InstagramUserId":null,"InstagramLoactionId":null,"TwitterUserName":"","FacebookUserName":null},
{"Name":"Nokia Bar","Latitude":34.044732,"Longitude":-118.265447,"InstagramUserName":null,"InstagramUserId":null,"InstagramLoactionId":null,"TwitterUserName":"","FacebookUserName":null},
{"Name":"LAX","Latitude":33.941589,"Longitude":-118.40853,"InstagramUserName":null,"InstagramUserId":null,"InstagramLoactionId":null,"TwitterUserName":"","FacebookUserName":null},
{"Name":"Las Perlas","Latitude":30.26801,"Longitude":-97.742679,"InstagramUserName":null,"InstagramUserId":null,"InstagramLoactionId":null,"TwitterUserName":"@LasPerlasLA","FacebookUserName":null},
{"Name":"Novel Cafe Pasandena","Latitude":30.26801,"Longitude":-97.742679,"InstagramUserName":null,"InstagramUserId":null,"InstagramLoactionId":null,"TwitterUserName":"@NovelCafePsdena","FacebookUserName":null},
{"Name":"SOI 7","Latitude":34.046702,"Longitude":-118.256261,"InstagramUserName":null,"InstagramUserId":null,"InstagramLoactionId":null,"TwitterUserName":"@Soi7Pub","FacebookUserName":null},
{"Name":"The corner Place","Latitude":34.056256,"Longitude":-118.289863,"InstagramUserName":null,"InstagramUserId":null,"InstagramLoactionId":null,"TwitterUserName":"@thecornerplace","FacebookUserName":null},
{"Name":"el condor","Latitude":34.090812,"Longitude":-118.277704,"InstagramUserName":null,"InstagramUserId":null,"InstagramLoactionId":null,"TwitterUserName":"@elcondorLA","FacebookUserName":null},
{"Name":"Bistro De La Gare","Latitude":34.114892,"Longitude":-118.157612,"InstagramUserName":null,"InstagramUserId":null,"InstagramLoactionId":null,"TwitterUserName":"@BistroDeLaGare","FacebookUserName":null},
{"Name":"City Tavern","Latitude":34.04907,"Longitude":-118.26071,"InstagramUserName":null,"InstagramUserId":null,"InstagramLoactionId":null,"TwitterUserName":"@citytavernDTLA","FacebookUserName":null},
{"Name":"Manna BBQ","Latitude":34.04513,"Longitude":-118.238448,"InstagramUserName":null,"InstagramUserId":null,"InstagramLoactionId":null,"TwitterUserName":"@mannakoreanbbq","FacebookUserName":null},
{"Name":"MICHELANGELO RISTORANTE","Latitude":34.107082,"Longitude":-118.263525,"InstagramUserName":null,"InstagramUserId":null,"InstagramLoactionId":null,"TwitterUserName":"@MichelangeloLA","FacebookUserName":null},
{"Name":"Madang621","Latitude":34.107082,"Longitude":-118.263525,"InstagramUserName":null,"InstagramUserId":null,"InstagramLoactionId":null,"TwitterUserName":"@Madang621","FacebookUserName":null},
{"Name":"LA LUZ DEL DIA","Latitude":34.057451,"Longitude":-118.238118,"InstagramUserName":null,"InstagramUserId":null,"InstagramLoactionId":null,"TwitterUserName":"@LaLuzOnOlvera","FacebookUserName":null},
{"Name":"Guelaguetza","Latitude":34.052411,"Longitude":-118.300711,"InstagramUserName":null,"InstagramUserId":null,"InstagramLoactionId":null,"TwitterUserName":"@LaGuelaguetza","FacebookUserName":null},
{"Name":"Texcoco","Latitude":33.984672,"Longitude":-118.161847,"InstagramUserName":null,"InstagramUserId":null,"InstagramLoactionId":null,"TwitterUserName":"@AquiesTexcoco","FacebookUserName":null},
{"Name":"Far Bar LA","Latitude":34.04977,"Longitude":-118.239474,"InstagramUserName":null,"InstagramUserId":null,"InstagramLoactionId":null,"TwitterUserName":"@farbartweets","FacebookUserName":null},
{"Name":"Lock and Key","Latitude":34.069852,"Longitude":-118.291665,"InstagramUserName":null,"InstagramUserId":null,"InstagramLoactionId":null,"TwitterUserName":"@LockandKeyLA","FacebookUserName":null},
{"Name":"Verdugo Bar","Latitude":34.113771,"Longitude":-118.234948,"InstagramUserName":null,"InstagramUserId":null,"InstagramLoactionId":null,"TwitterUserName":"@VerdugoBar","FacebookUserName":null},
{"Name":"Covell","Latitude":34.099879,"Longitude":-118.290203,"InstagramUserName":null,"InstagramUserId":null,"InstagramLoactionId":null,"TwitterUserName":"@barcovell","FacebookUserName":null},
{"Name":"Play house","Latitude":34.145115,"Longitude":-118.137375,"InstagramUserName":null,"InstagramUserId":null,"InstagramLoactionId":null,"TwitterUserName":"@playhousehw","FacebookUserName":null},
{"Name":"Hemingways lounge","Latitude":34.101282,"Longitude":-118.328584,"InstagramUserName":null,"InstagramUserId":null,"InstagramLoactionId":null,"TwitterUserName":"","FacebookUserName":null},
{"Name":"Tiki-ti","Latitude":34.097511,"Longitude":-118.285719,"InstagramUserName":null,"InstagramUserId":null,"InstagramLoactionId":null,"TwitterUserName":"@Tiki_Ti","FacebookUserName":null},
{"Name":"Lost property Bar","Latitude":34.101736,"Longitude":-118.326658,"InstagramUserName":null,"InstagramUserId":null,"InstagramLoactionId":null,"TwitterUserName":"@LostPropertyBar","FacebookUserName":null},
{"Name":"Capicolas","Latitude":33.797878,"Longitude":-118.341046,"InstagramUserName":null,"InstagramUserId":null,"InstagramLoactionId":null,"TwitterUserName":"@Capicolas","FacebookUserName":null},
{"Name":"the prince","Latitude":34.059442,"Longitude":-118.29499,"InstagramUserName":null,"InstagramUserId":null,"InstagramLoactionId":null,"TwitterUserName":"","FacebookUserName":null},
{"Name":"Alza Vegan","Latitude":34.017316,"Longitude":-118.278304,"InstagramUserName":null,"InstagramUserId":null,"InstagramLoactionId":null,"TwitterUserName":"","FacebookUserName":null},
{"Name":"Brite Spot","Latitude":34.077737,"Longitude":-118.261365,"InstagramUserName":null,"InstagramUserId":null,"InstagramLoactionId":null,"TwitterUserName":"@Brite_Spot","FacebookUserName":null},
{"Name":"camilos","Latitude":34.138875,"Longitude":-118.212955,"InstagramUserName":null,"InstagramUserId":null,"InstagramLoactionId":null,"TwitterUserName":"","FacebookUserName":null},
{"Name":"Canele","Latitude":34.118395,"Longitude":-118.260833,"InstagramUserName":null,"InstagramUserId":null,"InstagramLoactionId":null,"TwitterUserName":"@canele_la","FacebookUserName":null},
{"Name":"Justice LA","Latitude":34.050528,"Longitude":-118.242649,"InstagramUserName":null,"InstagramUserId":null,"InstagramLoactionId":null,"TwitterUserName":"@Justicetavern","FacebookUserName":null},
{"Name":"Alimento LA","Latitude":34.089478,"Longitude":-118.26816,"InstagramUserName":null,"InstagramUserId":null,"InstagramLoactionId":null,"TwitterUserName":"@alimentoLA","FacebookUserName":null},
{"Name":"Langers deli","Latitude":34.056152,"Longitude":-118.276832,"InstagramUserName":null,"InstagramUserId":null,"InstagramLoactionId":null,"TwitterUserName":"@LangersDeli","FacebookUserName":null},
{"Name":"Micheal J&#39;s","Latitude":34.059326,"Longitude":-118.213704,"InstagramUserName":null,"InstagramUserId":null,"InstagramLoactionId":null,"TwitterUserName":"@michaeljscafe","FacebookUserName":null},
{"Name":"kazunori","Latitude":34.047677,"Longitude":-118.247817,"InstagramUserName":null,"InstagramUserId":null,"InstagramLoactionId":null,"TwitterUserName":"@kazunorisushi","FacebookUserName":null},
{"Name":"Post and Beam","Latitude":34.00986,"Longitude":-118.339044,"InstagramUserName":null,"InstagramUserId":null,"InstagramLoactionId":null,"TwitterUserName":"@postandbeamLA","FacebookUserName":null},
{"Name":"stafford + mathis","Latitude":34.044177,"Longitude":-118.264245,"InstagramUserName":null,"InstagramUserId":null,"InstagramLoactionId":null,"TwitterUserName":"@LuxeCityCenter","FacebookUserName":null},
{"Name":"Black Hogg","Latitude":34.082527,"Longitude":-118.273194,"InstagramUserName":null,"InstagramUserId":null,"InstagramLoactionId":null,"TwitterUserName":"@black_hogg","FacebookUserName":null},
{"Name":"Kendall&#39;s","Latitude":34.056607,"Longitude":-118.248933,"InstagramUserName":null,"InstagramUserId":null,"InstagramLoactionId":null,"TwitterUserName":"@Patina_Group","FacebookUserName":null},
{"Name":"Harold and Belle&#39;s","Latitude":34.025467,"Longitude":-118.3279,"InstagramUserName":null,"InstagramUserId":null,"InstagramLoactionId":null,"TwitterUserName":"@HaroldandBelles","FacebookUserName":null},
{"Name":"Fifty seven","Latitude":null,"Longitude":null,"InstagramUserName":null,"InstagramUserId":null,"InstagramLoactionId":null,"TwitterUserName":"@FiftySevenLA","FacebookUserName":null},
{"Name":"Plan Check","Latitude":34.052799,"Longitude":-118.263724,"InstagramUserName":null,"InstagramUserId":null,"InstagramLoactionId":null,"TwitterUserName":"@plancheck","FacebookUserName":null},
{"Name":"The Parks Finest","Latitude":34.066441,"Longitude":-118.254039,"InstagramUserName":null,"InstagramUserId":null,"InstagramLoactionId":null,"TwitterUserName":"@theparksfinest","FacebookUserName":null},
{"Name":"Beverly Soon","Latitude":34.053089,"Longitude":-118.292271,"InstagramUserName":null,"InstagramUserId":null,"InstagramLoactionId":null,"TwitterUserName":"","FacebookUserName":null},
{"Name":"San Antonio Winery","Latitude":34.021844,"Longitude":-117.558583,"InstagramUserName":null,"InstagramUserId":null,"InstagramLoactionId":null,"TwitterUserName":"@TheRiboliFamily","FacebookUserName":null},
{"Name":"Commissary","Latitude":34.062071,"Longitude":-118.301033,"InstagramUserName":null,"InstagramUserId":null,"InstagramLoactionId":null,"TwitterUserName":"@commissaryLA","FacebookUserName":null},
{"Name":"Little bear","Latitude":34.036016,"Longitude":-118.233054,"InstagramUserName":null,"InstagramUserId":null,"InstagramLoactionId":null,"TwitterUserName":"@LittleBearLA","FacebookUserName":null},
{"Name":"Auntie Em","Latitude":34.127822,"Longitude":-118.217458,"InstagramUserName":null,"InstagramUserId":null,"InstagramLoactionId":null,"TwitterUserName":"@auntieemskitchn","FacebookUserName":"@auntieems"},
{"Name":"El Caserio","Latitude":34.077712,"Longitude":-118.280677,"InstagramUserName":null,"InstagramUserId":null,"InstagramLoactionId":null,"TwitterUserName":"@el_caserio","FacebookUserName":"@caserioplaza"},
{"Name":"Terroni","Latitude":34.042873,"Longitude":-118.253579,"InstagramUserName":null,"InstagramUserId":null,"InstagramLoactionId":null,"TwitterUserName":"@_terroni","FacebookUserName":null},
{"Name":"Bucato","Latitude":34.030595,"Longitude":-118.384633,"InstagramUserName":null,"InstagramUserId":null,"InstagramLoactionId":null,"TwitterUserName":"@BucatoLA","FacebookUserName":null},
{"Name":"Second Story Restaurant","Latitude":33.890156,"Longitude":-118.395949,"InstagramUserName":null,"InstagramUserId":null,"InstagramLoactionId":null,"TwitterUserName":"","FacebookUserName":null},
{"Name":"Chan Dara Larchmont","Latitude":34.076588,"Longitude":-118.323305,"InstagramUserName":null,"InstagramUserId":null,"InstagramLoactionId":null,"TwitterUserName":"@ChanDaraLarch","FacebookUserName":null},
{"Name":"Fabiolus","Latitude":34.097769,"Longitude":-118.326011,"InstagramUserName":null,"InstagramUserId":null,"InstagramLoactionId":null,"TwitterUserName":"@TheFabioluscafe","FacebookUserName":null},
{"Name":"Tiago Espresso","Latitude":34.101073,"Longitude":-118.34441,"InstagramUserName":null,"InstagramUserId":null,"InstagramLoactionId":null,"TwitterUserName":"@tiagocoffee","FacebookUserName":null},
{"Name":"Flavors of Belize","Latitude":34.051474,"Longitude":-118.344281,"InstagramUserName":null,"InstagramUserId":null,"InstagramLoactionId":null,"TwitterUserName":"@FlavorsofBelize","FacebookUserName":null},
{"Name":"Soowon","Latitude":34.05642,"Longitude":-118.291347,"InstagramUserName":null,"InstagramUserId":null,"InstagramLoactionId":null,"TwitterUserName":"@SOOWONBBQLA","FacebookUserName":null},
{"Name":"Field Trip","Latitude":34.099212,"Longitude":-118.327068,"InstagramUserName":null,"InstagramUserId":null,"InstagramLoactionId":null,"TwitterUserName":"@FieldTrip","FacebookUserName":null},
{"Name":"Osteria la Buca","Latitude":34.083344,"Longitude":-118.313944,"InstagramUserName":null,"InstagramUserId":null,"InstagramLoactionId":null,"TwitterUserName":"@OsteriaLaBucaLA","FacebookUserName":null},
{"Name":"Little fork","Latitude":34.099948,"Longitude":-118.330744,"InstagramUserName":null,"InstagramUserId":null,"InstagramLoactionId":null,"TwitterUserName":"","FacebookUserName":null},
{"Name":"La Poubelle","Latitude":34.105492,"Longitude":-118.318355,"InstagramUserName":null,"InstagramUserId":null,"InstagramLoactionId":null,"TwitterUserName":"@la_poubelle","FacebookUserName":null},
{"Name":"Liquid Lounge","Latitude":33.782302,"Longitude":-118.150773,"InstagramUserName":null,"InstagramUserId":null,"InstagramLoactionId":null,"TwitterUserName":"","FacebookUserName":null},
{"Name":"pour vous","Latitude":34.083279,"Longitude":-118.322424,"InstagramUserName":null,"InstagramUserId":null,"InstagramLoactionId":null,"TwitterUserName":"@pourvousla","FacebookUserName":null},
{"Name":"Reno Room","Latitude":33.764287,"Longitude":-118.152076,"InstagramUserName":null,"InstagramUserId":null,"InstagramLoactionId":null,"TwitterUserName":"@RenoRoom","FacebookUserName":null},
{"Name":"The short stop","Latitude":34.075375,"Longitude":-118.253483,"InstagramUserName":null,"InstagramUserId":null,"InstagramLoactionId":null,"TwitterUserName":"@The_Short_Stop","FacebookUserName":null},
{"Name":"Sunset Room","Latitude":33.99672,"Longitude":-117.968777,"InstagramUserName":null,"InstagramUserId":null,"InstagramLoactionId":null,"TwitterUserName":"","FacebookUserName":null},
{"Name":"The Mayan","Latitude":34.040513,"Longitude":-118.259096,"InstagramUserName":null,"InstagramUserId":null,"InstagramLoactionId":null,"TwitterUserName":"@TheMayanLA","FacebookUserName":null},
{"Name":"M Grill","Latitude":34.062134,"Longitude":-118.304961,"InstagramUserName":null,"InstagramUserId":null,"InstagramLoactionId":null,"TwitterUserName":"@MgrillBBQ","FacebookUserName":null},
{"Name":"Petes losangeles","Latitude":34.012494,"Longitude":-118.284582,"InstagramUserName":null,"InstagramUserId":null,"InstagramLoactionId":null,"TwitterUserName":"@Petes_Cafe","FacebookUserName":null},
{"Name":"Blue Whale","Latitude":34.050172,"Longitude":-118.241929,"InstagramUserName":null,"InstagramUserId":null,"InstagramLoactionId":null,"TwitterUserName":"@bluewhalemusic","FacebookUserName":null},
{"Name":"Artisan House","Latitude":34.044927,"Longitude":-118.249846,"InstagramUserName":null,"InstagramUserId":null,"InstagramLoactionId":null,"TwitterUserName":"@ArtisanHouseLA","FacebookUserName":null},
{"Name":"Orsa and winston","Latitude":34.048533,"Longitude":-118.247854,"InstagramUserName":null,"InstagramUserId":null,"InstagramLoactionId":null,"TwitterUserName":"@OrsaWinston","FacebookUserName":null},
{"Name":"Bar ama","Latitude":34.048415,"Longitude":-118.247928,"InstagramUserName":null,"InstagramUserId":null,"InstagramLoactionId":null,"TwitterUserName":"@bar_ama","FacebookUserName":null},
{"Name":"egg Slut ","Latitude":34.050655,"Longitude":-118.248795,"InstagramUserName":null,"InstagramUserId":null,"InstagramLoactionId":null,"TwitterUserName":"@eggslut","FacebookUserName":null},
{"Name":"Silo dtla","Latitude":34.045109,"Longitude":-118.252953,"InstagramUserName":"@silodtla","InstagramUserId":282567309,"InstagramLoactionId":null,"TwitterUserName":"","FacebookUserName":null},
{"Name":"Ground work coffee","Latitude":34.051013,"Longitude":-118.244822,"InstagramUserName":null,"InstagramUserId":null,"InstagramLoactionId":null,"TwitterUserName":"@Groundworkcoffe","FacebookUserName":null},
{"Name":"LA Chapter","Latitude":34.041895,"Longitude":-118.256196,"InstagramUserName":null,"InstagramUserId":null,"InstagramLoactionId":null,"TwitterUserName":"@lachapterca","FacebookUserName":null},
{"Name":"Ledlowla","Latitude":34.047811,"Longitude":-118.246982,"InstagramUserName":null,"InstagramUserId":null,"InstagramLoactionId":null,"TwitterUserName":"@ledlowdtla","FacebookUserName":null},
{"Name":"Chego","Latitude":34.061335,"Longitude":-118.238823,"InstagramUserName":null,"InstagramUserId":null,"InstagramLoactionId":null,"TwitterUserName":"@EatChego","FacebookUserName":null},
{"Name":"Mexicali Taco","Latitude":34.063452,"Longitude":-118.245648,"InstagramUserName":null,"InstagramUserId":null,"InstagramLoactionId":null,"TwitterUserName":"@MEXICALItacoCO","FacebookUserName":null},
{"Name":"Grand Performances","Latitude":34.051402,"Longitude":-118.251559,"InstagramUserName":null,"InstagramUserId":null,"InstagramLoactionId":null,"TwitterUserName":"@GrandPerfs","FacebookUserName":null},
{"Name":"Librarybarla","Latitude":34.049092,"Longitude":-118.256177,"InstagramUserName":null,"InstagramUserId":null,"InstagramLoactionId":null,"TwitterUserName":"@LibraryBarLA","FacebookUserName":null},
{"Name":"public school","Latitude":34.049543,"Longitude":-118.257453,"InstagramUserName":null,"InstagramUserId":null,"InstagramLoactionId":null,"TwitterUserName":"@ps612","FacebookUserName":null},
{"Name":"Nickel DIner","Latitude":34.045909,"Longitude":-118.248799,"InstagramUserName":null,"InstagramUserId":null,"InstagramLoactionId":null,"TwitterUserName":"@5cdiner","FacebookUserName":null},
{"Name":"Marketrestaurants","Latitude":34.040727,"Longitude":-118.253769,"InstagramUserName":null,"InstagramUserId":null,"InstagramLoactionId":null,"TwitterUserName":"@MarketRG","FacebookUserName":null},
{"Name":"Bacomercat","Latitude":34.047881,"Longitude":-118.247135,"InstagramUserName":null,"InstagramUserId":null,"InstagramLoactionId":null,"TwitterUserName":"@bacomercat","FacebookUserName":null},
{"Name":"Shekarchi","Latitude":34.042573,"Longitude":-118.257263,"InstagramUserName":null,"InstagramUserId":null,"InstagramLoactionId":null,"TwitterUserName":"","FacebookUserName":null},
{"Name":"Villainstavern","Latitude":34.040167,"Longitude":-118.231042,"InstagramUserName":null,"InstagramUserId":null,"InstagramLoactionId":null,"TwitterUserName":"@Villains_Tavern","FacebookUserName":null},
{"Name":"Elevate Lounge","Latitude":34.049847,"Longitude":-118.258183,"InstagramUserName":null,"InstagramUserId":null,"InstagramLoactionId":null,"TwitterUserName":"@ElevateLounge","FacebookUserName":null},
{"Name":"Bottega Louie","Latitude":34.046932,"Longitude":-118.256681,"InstagramUserName":null,"InstagramUserId":null,"InstagramLoactionId":null,"TwitterUserName":"@bottegalouie","FacebookUserName":null},
{"Name":"Color Kitchen","Latitude":34.04515,"Longitude":-118.256393,"InstagramUserName":null,"InstagramUserId":null,"InstagramLoactionId":null,"TwitterUserName":"@ColoriKitchen","FacebookUserName":null},
{"Name":"Noe Restaurant","Latitude":34.052549,"Longitude":-118.250521,"InstagramUserName":null,"InstagramUserId":null,"InstagramLoactionId":null,"TwitterUserName":"","FacebookUserName":null},
{"Name":"takami sushi","Latitude":34.049847,"Longitude":-118.258183,"InstagramUserName":null,"InstagramUserId":null,"InstagramLoactionId":null,"TwitterUserName":"@TakamiSushiLA","FacebookUserName":null},
{"Name":"Pit Fire Pizza","Latitude":34.051013,"Longitude":-118.244822,"InstagramUserName":null,"InstagramUserId":null,"InstagramLoactionId":null,"TwitterUserName":"@PitfirePizza","FacebookUserName":null},
{"Name":"The Shijon","Latitude":34.045071,"Longitude":-118.238033,"InstagramUserName":null,"InstagramUserId":null,"InstagramLoactionId":null,"TwitterUserName":"@shojinlove","FacebookUserName":null},
{"Name":"The must","Latitude":34.047127,"Longitude":-118.247124,"InstagramUserName":null,"InstagramUserId":null,"InstagramLoactionId":null,"TwitterUserName":"@TheMustBa","FacebookUserName":null},
{"Name":"The Factory Kitchen","Latitude":null,"Longitude":null,"InstagramUserName":null,"InstagramUserId":null,"InstagramLoactionId":null,"TwitterUserName":"@TheFactoryKitch","FacebookUserName":null},
{"Name":"Faith &amp; Flower","Latitude":34.038899,"Longitude":-118.235913,"InstagramUserName":null,"InstagramUserId":null,"InstagramLoactionId":null,"TwitterUserName":"@faithandflower","FacebookUserName":null},
{"Name":"Cabbage patch la","Latitude":34.048409,"Longitude":-118.254779,"InstagramUserName":null,"InstagramUserId":null,"InstagramLoactionId":null,"TwitterUserName":"@eatcabbagepatch","FacebookUserName":null},
{"Name":"i love primo","Latitude":34.049543,"Longitude":-118.257453,"InstagramUserName":null,"InstagramUserId":null,"InstagramLoactionId":null,"TwitterUserName":"@caffeprimola","FacebookUserName":null},
{"Name":"Bottle Rock LA","Latitude":34.043018,"Longitude":-118.263684,"InstagramUserName":null,"InstagramUserId":null,"InstagramLoactionId":null,"TwitterUserName":"@BottleRock","FacebookUserName":null},
{"Name":"Big man bakes","Latitude":34.047922,"Longitude":-118.248019,"InstagramUserName":null,"InstagramUserId":null,"InstagramLoactionId":null,"TwitterUserName":"@bigmanbakes","FacebookUserName":null},
{"Name":"Joxer daly&#39;s","Latitude":34.007789,"Longitude":-118.41234,"InstagramUserName":null,"InstagramUserId":null,"InstagramLoactionId":null,"TwitterUserName":"@joxerdalysLA","FacebookUserName":null},
{"Name":"Border grill","Latitude":null,"Longitude":null,"InstagramUserName":null,"InstagramUserId":null,"InstagramLoactionId":null,"TwitterUserName":"@BorderGrill","FacebookUserName":null},
{"Name":"Blue cow kitchen","Latitude":null,"Longitude":null,"InstagramUserName":null,"InstagramUserId":null,"InstagramLoactionId":null,"TwitterUserName":"@bluecowkitchen","FacebookUserName":null},
{"Name":"Back home in lahaina","Latitude":33.831987,"Longitude":-118.267735,"InstagramUserName":null,"InstagramUserId":null,"InstagramLoactionId":null,"TwitterUserName":"@BHLahaina","FacebookUserName":null},
{"Name":"Bagel nosh deli","Latitude":34.029111,"Longitude":-118.486358,"InstagramUserName":null,"InstagramUserId":null,"InstagramLoactionId":null,"TwitterUserName":"@BagelNoshDeli","FacebookUserName":null},
{"Name":"Dalrae restaurant","Latitude":33.983024,"Longitude":-118.095992,"InstagramUserName":null,"InstagramUserId":null,"InstagramLoactionId":null,"TwitterUserName":"@TheDalRae","FacebookUserName":null},
{"Name":"Grinder restaurants","Latitude":34.026551,"Longitude":-118.276632,"InstagramUserName":null,"InstagramUserId":null,"InstagramLoactionId":null,"TwitterUserName":"@GrinderDeli","FacebookUserName":null},
{"Name":"Picassos cafe","Latitude":34.114324,"Longitude":-117.93384,"InstagramUserName":null,"InstagramUserId":null,"InstagramLoactionId":null,"TwitterUserName":"@picassocafe","FacebookUserName":null},
{"Name":"Sage vegan bistro","Latitude":34.006633,"Longitude":-118.411863,"InstagramUserName":null,"InstagramUserId":null,"InstagramLoactionId":null,"TwitterUserName":"@SageVegan","FacebookUserName":null},
{"Name":"Bombay cafela","Latitude":34.029841,"Longitude":-118.449828,"InstagramUserName":null,"InstagramUserId":null,"InstagramLoactionId":null,"TwitterUserName":"","FacebookUserName":null},
{"Name":"Barneys beanery","Latitude":34.029841,"Longitude":-118.449828,"InstagramUserName":null,"InstagramUserId":null,"InstagramLoactionId":null,"TwitterUserName":"@barneysbeanery","FacebookUserName":null},
{"Name":"Cafe chezmarie","Latitude":34.053092,"Longitude":-118.431083,"InstagramUserName":null,"InstagramUserId":null,"InstagramLoactionId":null,"TwitterUserName":"@CafeChezMarie","FacebookUserName":null},
{"Name":"Bona venture","Latitude":34.052911,"Longitude":-118.256195,"InstagramUserName":null,"InstagramUserId":null,"InstagramLoactionId":null,"TwitterUserName":"@bonaventurebrew","FacebookUserName":null},
{"Name":"Brent woodrestaurant","Latitude":34.064718,"Longitude":-118.469452,"InstagramUserName":null,"InstagramUserId":null,"InstagramLoactionId":null,"TwitterUserName":"@BrentWineBistro","FacebookUserName":null},
{"Name":"Nicolas woodland hills","Latitude":34.166828,"Longitude":-118.590338,"InstagramUserName":null,"InstagramUserId":null,"InstagramLoactionId":null,"TwitterUserName":"","FacebookUserName":null},
{"Name":"Crust delivers","Latitude":34.14291,"Longitude":-118.391892,"InstagramUserName":null,"InstagramUserId":null,"InstagramLoactionId":null,"TwitterUserName":"@Crust","FacebookUserName":null},
{"Name":"Stoney point","Latitude":34.2567,"Longitude":-118.606052,"InstagramUserName":null,"InstagramUserId":null,"InstagramLoactionId":null,"TwitterUserName":"@Stoney_Point","FacebookUserName":null},
{"Name":"Seahawk cocktails","Latitude":33.854152,"Longitude":-118.143732,"InstagramUserName":null,"InstagramUserId":null,"InstagramLoactionId":null,"TwitterUserName":"@SeahawkCocktail","FacebookUserName":null},
{"Name":"Pistons bar","Latitude":33.87436,"Longitude":-118.168057,"InstagramUserName":null,"InstagramUserId":null,"InstagramLoactionId":null,"TwitterUserName":"@thepistonbar","FacebookUserName":null},
{"Name":"Conga Room","Latitude":34.044938,"Longitude":-118.265498,"InstagramUserName":null,"InstagramUserId":null,"InstagramLoactionId":null,"TwitterUserName":"@TheCongaRoom","FacebookUserName":null},
{"Name":"Sharkeez","Latitude":33.900461,"Longitude":-118.417397,"InstagramUserName":null,"InstagramUserId":null,"InstagramLoactionId":null,"TwitterUserName":"@BajaSharkeezMB","FacebookUserName":null},
{"Name":"Italiadeli","Latitude":null,"Longitude":null,"InstagramUserName":null,"InstagramUserId":null,"InstagramLoactionId":null,"TwitterUserName":"@ItaliaDeli","FacebookUserName":null},
{"Name":"La Serenata de garibaldo","Latitude":34.046773,"Longitude":-118.218461,"InstagramUserName":null,"InstagramUserId":null,"InstagramLoactionId":null,"TwitterUserName":"@LaSerenataLA","FacebookUserName":null},
{"Name":"Rbmarina","Latitude":33.842622,"Longitude":-118.393002,"InstagramUserName":null,"InstagramUserId":null,"InstagramLoactionId":null,"TwitterUserName":"@rbmarina","FacebookUserName":null},
{"Name":"Admiralristy","Latitude":33.74812,"Longitude":-118.40695,"InstagramUserName":null,"InstagramUserId":null,"InstagramLoactionId":null,"TwitterUserName":"@TheAdmiralRisty","FacebookUserName":null},
{"Name":"Il-tiramisu","Latitude":34.148255,"Longitude":-118.431523,"InstagramUserName":null,"InstagramUserId":null,"InstagramLoactionId":null,"TwitterUserName":"@iltiramisu","FacebookUserName":null},
{"Name":"Victorios-northhollywood","Latitude":34.18716,"Longitude":-118.368602,"InstagramUserName":null,"InstagramUserId":null,"InstagramLoactionId":null,"TwitterUserName":"","FacebookUserName":null},
{"Name":"Amalfi","Latitude":34.074782,"Longitude":-118.344369,"InstagramUserName":null,"InstagramUserId":null,"InstagramLoactionId":null,"TwitterUserName":"@amalfi5","FacebookUserName":null},
{"Name":"birds Cafe","Latitude":34.10543,"Longitude":-118.318909,"InstagramUserName":null,"InstagramUserId":null,"InstagramLoactionId":null,"TwitterUserName":"@BirdsHollywood","FacebookUserName":null},
{"Name":"Cafe-brasil","Latitude":34.017315,"Longitude":-118.410051,"InstagramUserName":null,"InstagramUserId":null,"InstagramLoactionId":null,"TwitterUserName":"@Cafe_Brasil_LA","FacebookUserName":null},
{"Name":"Pat&#39;s Cocktails","Latitude":34.157877,"Longitude":-118.397337,"InstagramUserName":null,"InstagramUserId":null,"InstagramLoactionId":null,"TwitterUserName":"@patscocktails","FacebookUserName":null},
{"Name":"Leo all star sports bar","Latitude":34.213588,"Longitude":-118.243072,"InstagramUserName":null,"InstagramUserId":null,"InstagramLoactionId":null,"TwitterUserName":"@leosallstar","FacebookUserName":null},
{"Name":"Irelands 32","Latitude":34.172393,"Longitude":-118.432171,"InstagramUserName":null,"InstagramUserId":null,"InstagramLoactionId":null,"TwitterUserName":"@Irelands32LA","FacebookUserName":null},
{"Name":"Industriel Farm","Latitude":34.048609,"Longitude":-118.255706,"InstagramUserName":null,"InstagramUserId":null,"InstagramLoactionId":null,"TwitterUserName":"@industrielfarm","FacebookUserName":null},
{"Name":"Kings Seafood","Latitude":34.15523,"Longitude":-118.643542,"InstagramUserName":null,"InstagramUserId":null,"InstagramLoactionId":null,"TwitterUserName":"@KingsFishHouse","FacebookUserName":null},
{"Name":"The Spare Room","Latitude":34.101278,"Longitude":-118.341613,"InstagramUserName":null,"InstagramUserId":null,"InstagramLoactionId":null,"TwitterUserName":"@SpareRoomHwood","FacebookUserName":null},
{"Name":"King Eddy Saloon","Latitude":34.046329,"Longitude":-118.247675,"InstagramUserName":null,"InstagramUserId":null,"InstagramLoactionId":null,"TwitterUserName":"@kingeddysaloon","FacebookUserName":null},
{"Name":"OHM Night Club LA","Latitude":34.101857,"Longitude":-118.339376,"InstagramUserName":null,"InstagramUserId":null,"InstagramLoactionId":null,"TwitterUserName":"@ohmnightclubla","FacebookUserName":null},
{"Name":"Wood and Vine","Latitude":34.1014,"Longitude":-118.326177,"InstagramUserName":null,"InstagramUserId":null,"InstagramLoactionId":null,"TwitterUserName":"@woodandvine","FacebookUserName":null},
{"Name":"Supperclub LA","Latitude":34.101813,"Longitude":-118.335641,"InstagramUserName":null,"InstagramUserId":null,"InstagramLoactionId":null,"TwitterUserName":"@supperclub_la","FacebookUserName":null},
{"Name":"El Cid","Latitude":34.093843,"Longitude":-118.282365,"InstagramUserName":null,"InstagramUserId":null,"InstagramLoactionId":null,"TwitterUserName":"@elsidla","FacebookUserName":null},
{"Name":"jay bar","Latitude":34.09513,"Longitude":-118.283327,"InstagramUserName":null,"InstagramUserId":null,"InstagramLoactionId":null,"TwitterUserName":"@JaysBarLA","FacebookUserName":null},
{"Name":"Avalon","Latitude":34.10272,"Longitude":-118.327153,"InstagramUserName":null,"InstagramUserId":null,"InstagramLoactionId":null,"TwitterUserName":"@AvalonHollywood","FacebookUserName":null},
{"Name":"Lure nightclub","Latitude":34.097134,"Longitude":-118.32903,"InstagramUserName":null,"InstagramUserId":null,"InstagramLoactionId":null,"TwitterUserName":"@LureHollywood","FacebookUserName":null},
{"Name":"Dillion irsih pub","Latitude":null,"Longitude":null,"InstagramUserName":null,"InstagramUserId":null,"InstagramLoactionId":null,"TwitterUserName":"@DillonsIrishPub","FacebookUserName":null},
{"Name":"Sadie LA","Latitude":34.001499,"Longitude":-117.730652,"InstagramUserName":null,"InstagramUserId":null,"InstagramLoactionId":null,"TwitterUserName":"@LAsSweetSadie","FacebookUserName":null},
{"Name":"Station Hollywood","Latitude":34.10063,"Longitude":-118.325867,"InstagramUserName":null,"InstagramUserId":null,"InstagramLoactionId":null,"TwitterUserName":"@StationHW","FacebookUserName":null},
{"Name":"The gorbalsla","Latitude":null,"Longitude":null,"InstagramUserName":null,"InstagramUserId":null,"InstagramLoactionId":null,"TwitterUserName":"@TheGorbals","FacebookUserName":null},
{"Name":"The chaya","Latitude":34.050861,"Longitude":-118.257528,"InstagramUserName":null,"InstagramUserId":null,"InstagramLoactionId":null,"TwitterUserName":"@chayarestaurant","FacebookUserName":null},
{"Name":"Daily grill","Latitude":34.049543,"Longitude":-118.257453,"InstagramUserName":null,"InstagramUserId":null,"InstagramLoactionId":null,"TwitterUserName":"@DailyGrill","FacebookUserName":null},
{"Name":"Howl at the moon","Latitude":34.136033,"Longitude":-118.352791,"InstagramUserName":null,"InstagramUserId":null,"InstagramLoactionId":null,"TwitterUserName":"@_howlatthemoon","FacebookUserName":null},
{"Name":"Edendale","Latitude":34.107509,"Longitude":-118.265952,"InstagramUserName":null,"InstagramUserId":null,"InstagramLoactionId":null,"TwitterUserName":"@EdendaleBar","FacebookUserName":null},
{"Name":"Geoffreys malibu","Latitude":34.025188,"Longitude":-118.769965,"InstagramUserName":null,"InstagramUserId":null,"InstagramLoactionId":null,"TwitterUserName":"@GeoffreysMalibu","FacebookUserName":null},
{"Name":"Ragin cajun","Latitude":33.833464,"Longitude":-118.385354,"InstagramUserName":null,"InstagramUserId":null,"InstagramLoactionId":null,"TwitterUserName":"@cajunonwheels","FacebookUserName":null},
{"Name":"Wurstkuche","Latitude":34.045603,"Longitude":-118.236058,"InstagramUserName":null,"InstagramUserId":null,"InstagramLoactionId":null,"TwitterUserName":"@wurstkuche","FacebookUserName":null},
{"Name":"Lo/Cal","Latitude":34.02072,"Longitude":-118.467007,"InstagramUserName":null,"InstagramUserId":null,"InstagramLoactionId":null,"TwitterUserName":"","FacebookUserName":null},
{"Name":"Bar and kitchen la","Latitude":34.046948,"Longitude":-118.260699,"InstagramUserName":null,"InstagramUserId":null,"InstagramLoactionId":null,"TwitterUserName":"","FacebookUserName":null},
{"Name":"Bread Lounge","Latitude":34.034273,"Longitude":-118.229705,"InstagramUserName":null,"InstagramUserId":null,"InstagramLoactionId":null,"TwitterUserName":"@breadlounge","FacebookUserName":null},
{"Name":"The bluefish","Latitude":null,"Longitude":null,"InstagramUserName":null,"InstagramUserId":null,"InstagramLoactionId":null,"TwitterUserName":"","FacebookUserName":null},
{"Name":"Pizza Antica","Latitude":34.009672,"Longitude":-118.4971,"InstagramUserName":null,"InstagramUserId":null,"InstagramLoactionId":null,"TwitterUserName":"@Pizza_Antica","FacebookUserName":null},
{"Name":"55 Degree wine &amp; Link and Hops","Latitude":34.116374,"Longitude":-118.262979,"InstagramUserName":null,"InstagramUserId":null,"InstagramLoactionId":null,"TwitterUserName":"@linknhops","FacebookUserName":null},
{"Name":"Rustyssurfranch","Latitude":34.009825,"Longitude":-118.496485,"InstagramUserName":null,"InstagramUserId":null,"InstagramLoactionId":null,"TwitterUserName":"@Rustyssurfranch","FacebookUserName":null},
{"Name":"Jodymaroni","Latitude":33.98461,"Longitude":-118.471484,"InstagramUserName":null,"InstagramUserId":null,"InstagramLoactionId":null,"TwitterUserName":"@Jodymaroni","FacebookUserName":null},
{"Name":"The dragonfly","Latitude":34.090714,"Longitude":-118.33133,"InstagramUserName":null,"InstagramUserId":null,"InstagramLoactionId":null,"TwitterUserName":"@Dragonfly_LA","FacebookUserName":null},
{"Name":"Engine Co. 28","Latitude":34.049589,"Longitude":-118.259168,"InstagramUserName":null,"InstagramUserId":null,"InstagramLoactionId":null,"TwitterUserName":"@EngineCo28","FacebookUserName":null},
{"Name":"Boccacciosjoe","Latitude":null,"Longitude":null,"InstagramUserName":null,"InstagramUserId":null,"InstagramLoactionId":null,"TwitterUserName":"@BoccaccioRisto","FacebookUserName":null},
{"Name":"Soleilwestwood","Latitude":34.055544,"Longitude":-118.441644,"InstagramUserName":null,"InstagramUserId":null,"InstagramLoactionId":null,"TwitterUserName":"@SoleilWestwood","FacebookUserName":null},
{"Name":"Cafe del reymarina","Latitude":33.983582,"Longitude":-118.446948,"InstagramUserName":null,"InstagramUserId":null,"InstagramLoactionId":null,"TwitterUserName":"","FacebookUserName":null},
{"Name":"Bestia","Latitude":34.033794,"Longitude":-118.229273,"InstagramUserName":null,"InstagramUserId":null,"InstagramLoactionId":null,"TwitterUserName":"@bestiadtla","FacebookUserName":null},
{"Name":"Alma Food and wine","Latitude":34.040984,"Longitude":-118.256967,"InstagramUserName":null,"InstagramUserId":null,"InstagramLoactionId":null,"TwitterUserName":"","FacebookUserName":null},
{"Name":"Mignon wine","Latitude":34.044625,"Longitude":-118.249327,"InstagramUserName":null,"InstagramUserId":null,"InstagramLoactionId":null,"TwitterUserName":"@mignonLA","FacebookUserName":null},
{"Name":"Lomelis","Latitude":33.885881,"Longitude":-118.318731,"InstagramUserName":null,"InstagramUserId":null,"InstagramLoactionId":null,"TwitterUserName":"","FacebookUserName":null},
{"Name":"The tavern on main","Latitude":33.917275,"Longitude":-118.416227,"InstagramUserName":null,"InstagramUserId":null,"InstagramLoactionId":null,"TwitterUserName":"","FacebookUserName":null},
{"Name":"Tempo club","Latitude":null,"Longitude":null,"InstagramUserName":null,"InstagramUserId":null,"InstagramLoactionId":null,"TwitterUserName":"@tempoclub","FacebookUserName":null},
{"Name":"Baja Buds","Latitude":34.090245,"Longitude":-118.310115,"InstagramUserName":null,"InstagramUserId":null,"InstagramLoactionId":null,"TwitterUserName":"","FacebookUserName":null},
{"Name":"Bistro garden","Latitude":34.144996,"Longitude":-118.41523,"InstagramUserName":null,"InstagramUserId":null,"InstagramLoactionId":null,"TwitterUserName":"","FacebookUserName":null},
{"Name":"Daily Dose Cafe","Latitude":34.035528,"Longitude":-118.233885,"InstagramUserName":null,"InstagramUserId":null,"InstagramLoactionId":null,"TwitterUserName":"","FacebookUserName":null},
{"Name":"Go Get Em Tiger","Latitude":34.075587,"Longitude":-118.3233,"InstagramUserName":null,"InstagramUserId":null,"InstagramLoactionId":null,"TwitterUserName":"","FacebookUserName":null},
{"Name":"Diddy Riese","Latitude":34.063053,"Longitude":-118.44686,"InstagramUserName":null,"InstagramUserId":null,"InstagramLoactionId":null,"TwitterUserName":"","FacebookUserName":null},
{"Name":"The Village Bakery & Cafe","Latitude":34.12441,"Longitude":-118.267409,"InstagramUserName":null,"InstagramUserId":null,"InstagramLoactionId":null,"TwitterUserName":"","FacebookUserName":null},
{"Name":"The Curry House","Latitude":34.062701,"Longitude":-118.309472,"InstagramUserName":null,"InstagramUserId":null,"InstagramLoactionId":null,"TwitterUserName":"","FacebookUserName":null},
{"Name":"Food Haus Cafe","Latitude":34.029913,"Longitude":-118.268719,"InstagramUserName":null,"InstagramUserId":null,"InstagramLoactionId":null,"TwitterUserName":"","FacebookUserName":null},
{"Name":"Marcel Food Truck","Latitude":null,"Longitude":null,"InstagramUserName":null,"InstagramUserId":null,"InstagramLoactionId":null,"TwitterUserName":"","FacebookUserName":null},
{"Name":"Honda Ya Japanese Restaurant","Latitude":34.045274,"Longitude":-118.238492,"InstagramUserName":null,"InstagramUserId":null,"InstagramLoactionId":null,"TwitterUserName":"","FacebookUserName":null},
{"Name":"Shabu Shabu House Restaurant","Latitude":34.049164,"Longitude":-118.239901,"InstagramUserName":null,"InstagramUserId":null,"InstagramLoactionId":null,"TwitterUserName":"","FacebookUserName":null},
{"Name":"Won Kok Restaurant","Latitude":34.061787,"Longitude":-118.237417,"InstagramUserName":null,"InstagramUserId":null,"InstagramLoactionId":null,"TwitterUserName":"","FacebookUserName":null},
{"Name":"Kushi Shabu Restaurant","Latitude":34.050171,"Longitude":-118.241946,"InstagramUserName":null,"InstagramUserId":null,"InstagramLoactionId":null,"TwitterUserName":"","FacebookUserName":null},
{"Name":"Noe Restaurant and Bar","Latitude":34.052551,"Longitude":-118.250453,"InstagramUserName":null,"InstagramUserId":null,"InstagramLoactionId":null,"TwitterUserName":"","FacebookUserName":null},
{"Name":"Patina Restaurant","Latitude":34.055193,"Longitude":-118.249159,"InstagramUserName":null,"InstagramUserId":null,"InstagramLoactionId":null,"TwitterUserName":"","FacebookUserName":null},
{"Name":"Pestolini","Latitude":34.049853,"Longitude":-118.249502,"InstagramUserName":null,"InstagramUserId":null,"InstagramLoactionId":null,"TwitterUserName":"","FacebookUserName":null},
{"Name":"Octopus Japanese Restaurant","Latitude":34.048606,"Longitude":-118.258251,"InstagramUserName":null,"InstagramUserId":null,"InstagramLoactionId":null,"TwitterUserName":"","FacebookUserName":null},
{"Name":"Caffe Primo","Latitude":34.049547,"Longitude":-118.257477,"InstagramUserName":null,"InstagramUserId":null,"InstagramLoactionId":null,"TwitterUserName":"","FacebookUserName":null},
{"Name":"Demitasse","Latitude":34.049774,"Longitude":-118.24171,"InstagramUserName":null,"InstagramUserId":null,"InstagramLoactionId":null,"TwitterUserName":"","FacebookUserName":null},
{"Name":"Spear Steak and Seafood House","Latitude":null,"Longitude":null,"InstagramUserName":null,"InstagramUserId":null,"InstagramLoactionId":null,"TwitterUserName":"","FacebookUserName":null},
{"Name":"Sprinkles Cupcakes","Latitude":34.069577,"Longitude":-118.406061,"InstagramUserName":null,"InstagramUserId":null,"InstagramLoactionId":null,"TwitterUserName":"","FacebookUserName":null},
{"Name":"Chado Tea Room:","Latitude":34.049739,"Longitude":-118.238563,"InstagramUserName":null,"InstagramUserId":null,"InstagramLoactionId":null,"TwitterUserName":"","FacebookUserName":null},
{"Name":"Barista Society","Latitude":34.056075,"Longitude":-118.236348,"InstagramUserName":null,"InstagramUserId":null,"InstagramLoactionId":null,"TwitterUserName":"","FacebookUserName":null},
{"Name":"Mabels Chicken and Waffles","Latitude":34.041769,"Longitude":-118.259048,"InstagramUserName":null,"InstagramUserId":null,"InstagramLoactionId":null,"TwitterUserName":"","FacebookUserName":null},
{"Name":"Nick and Stefs Steakhouse","Latitude":34.052679,"Longitude":-118.252341,"InstagramUserName":null,"InstagramUserId":null,"InstagramLoactionId":null,"TwitterUserName":"","FacebookUserName":null},
{"Name":"Mortons Steakhouse","Latitude":34.049246,"Longitude":-118.261753,"InstagramUserName":null,"InstagramUserId":null,"InstagramLoactionId":null,"TwitterUserName":"","FacebookUserName":null},
{"Name":"Eastside Italian Deli","Latitude":34.06516,"Longitude":-118.246539,"InstagramUserName":null,"InstagramUserId":null,"InstagramLoactionId":null,"TwitterUserName":"","FacebookUserName":null},
{"Name":"Cafe Dulce","Latitude":34.049087,"Longitude":-118.239979,"InstagramUserName":null,"InstagramUserId":null,"InstagramLoactionId":null,"TwitterUserName":"","FacebookUserName":null},
{"Name":"Bombo","Latitude":34.050655,"Longitude":-118.248795,"InstagramUserName":null,"InstagramUserId":null,"InstagramLoactionId":null,"TwitterUserName":"","FacebookUserName":null},
{"Name":"Suehiro Cafe","Latitude":34.049885,"Longitude":-118.239762,"InstagramUserName":null,"InstagramUserId":null,"InstagramLoactionId":null,"TwitterUserName":"","FacebookUserName":null},
{"Name":"Two Guns Espresso","Latitude":33.881447,"Longitude":-118.395501,"InstagramUserName":null,"InstagramUserId":null,"InstagramLoactionId":null,"TwitterUserName":"","FacebookUserName":null},
{"Name":"Caffe Bene Wilshire","Latitude":34.062045,"Longitude":-118.293928,"InstagramUserName":null,"InstagramUserId":null,"InstagramLoactionId":null,"TwitterUserName":"","FacebookUserName":null},
{"Name":"Mcconnell's Fine Ice Cream","Latitude":34.050655,"Longitude":-118.248795,"InstagramUserName":null,"InstagramUserId":null,"InstagramLoactionId":null,"TwitterUserName":"","FacebookUserName":null},
{"Name":"Cream","Latitude":34.022799,"Longitude":-118.279838,"InstagramUserName":null,"InstagramUserId":null,"InstagramLoactionId":null,"TwitterUserName":"","FacebookUserName":null},
{"Name":"Ozero Tea & Desserts","Latitude":34.048289,"Longitude":-118.239544,"InstagramUserName":null,"InstagramUserId":null,"InstagramLoactionId":null,"TwitterUserName":"","FacebookUserName":null},
{"Name":"Four Leaf Tea & Crepes","Latitude":34.048723,"Longitude":-118.241358,"InstagramUserName":null,"InstagramUserId":null,"InstagramLoactionId":null,"TwitterUserName":"","FacebookUserName":null},
{"Name":"Fleming's Prime Steakhouse","Latitude":34.04482,"Longitude":-118.265384,"InstagramUserName":null,"InstagramUserId":null,"InstagramLoactionId":null,"TwitterUserName":"","FacebookUserName":null},
{"Name":"Aloha Cafe","Latitude":34.046928,"Longitude":-118.238942,"InstagramUserName":null,"InstagramUserId":null,"InstagramLoactionId":null,"TwitterUserName":"","FacebookUserName":null},
{"Name":"Xoia Eats","Latitude":34.077908,"Longitude":-118.259409,"InstagramUserName":null,"InstagramUserId":null,"InstagramLoactionId":null,"TwitterUserName":"","FacebookUserName":null},
{"Name":"Syrup Desserts","Latitude":34.045783,"Longitude":-118.251469,"InstagramUserName":null,"InstagramUserId":null,"InstagramLoactionId":null,"TwitterUserName":"","FacebookUserName":null},
{"Name":"Bricks and Scones","Latitude":34.077693,"Longitude":-118.324055,"InstagramUserName":null,"InstagramUserId":null,"InstagramLoactionId":null,"TwitterUserName":"","FacebookUserName":null},
{"Name":"Panini Cafe Italian & Mediterranean","Latitude":34.045237,"Longitude":-118.261132,"InstagramUserName":null,"InstagramUserId":null,"InstagramLoactionId":null,"TwitterUserName":"","FacebookUserName":null},
{"Name":"Pasta Roma","Latitude":34.025649,"Longitude":-118.27804,"InstagramUserName":null,"InstagramUserId":null,"InstagramLoactionId":null,"TwitterUserName":"","FacebookUserName":null},
{"Name":"Pitchoun Bakery & Cafe","Latitude":34.048577,"Longitude":-118.254111,"InstagramUserName":null,"InstagramUserId":null,"InstagramLoactionId":null,"TwitterUserName":"","FacebookUserName":null},
{"Name":"The orginal Pantry","Latitude":34.046458,"Longitude":-118.263118,"InstagramUserName":null,"InstagramUserId":null,"InstagramLoactionId":null,"TwitterUserName":"","FacebookUserName":null},
{"Name":"Vaka burgers","Latitude":34.023862,"Longitude":-118.218098,"InstagramUserName":null,"InstagramUserId":null,"InstagramLoactionId":null,"TwitterUserName":"","FacebookUserName":null},
{"Name":"Frances Bakery & Coffee","Latitude":34.046979,"Longitude":-118.239109,"InstagramUserName":null,"InstagramUserId":null,"InstagramLoactionId":null,"TwitterUserName":"","FacebookUserName":null},
{"Name":"Peddler's Creamery","Latitude":34.046805,"Longitude":-118.247986,"InstagramUserName":null,"InstagramUserId":null,"InstagramLoactionId":null,"TwitterUserName":"","FacebookUserName":null},
{"Name":"Portofino Cucina Italiana","Latitude":34.046619,"Longitude":-118.248157,"InstagramUserName":null,"InstagramUserId":null,"InstagramLoactionId":null,"TwitterUserName":"","FacebookUserName":null},
{"Name":"Santa Monica Pier","Latitude":34.009242,"Longitude":-118.497604,"InstagramUserName":null,"InstagramUserId":null,"InstagramLoactionId":null,"TwitterUserName":"","FacebookUserName":null},
{"Name":"Museum of Contemporary Art","Latitude":34.063791,"Longitude":-118.358885,"InstagramUserName":null,"InstagramUserId":null,"InstagramLoactionId":null,"TwitterUserName":"","FacebookUserName":null},
{"Name":"Walt Disney Concert Hal","Latitude":34.055436,"Longitude":-118.24994,"InstagramUserName":null,"InstagramUserId":null,"InstagramLoactionId":null,"TwitterUserName":"","FacebookUserName":null},
{"Name":"The Ivy Restaruant","Latitude":34.075707,"Longitude":-118.384115,"InstagramUserName":null,"InstagramUserId":null,"InstagramLoactionId":null,"TwitterUserName":"","FacebookUserName":null},
{"Name":"The Roof on Wilshire","Latitude":34.063887,"Longitude":-118.36601,"InstagramUserName":null,"InstagramUserId":null,"InstagramLoactionId":null,"TwitterUserName":"","FacebookUserName":null},
{"Name":"EMC Seafood and Raw Bar","Latitude":34.063138,"Longitude":-118.298559,"InstagramUserName":null,"InstagramUserId":null,"InstagramLoactionId":null,"TwitterUserName":"","FacebookUserName":null},
{"Name":"Cecconi's Italian Restaruant","Latitude":34.080575,"Longitude":-118.384964,"InstagramUserName":null,"InstagramUserId":null,"InstagramLoactionId":null,"TwitterUserName":"","FacebookUserName":null},
{"Name":"Yamashiro","Latitude":34.105866,"Longitude":-118.342155,"InstagramUserName":null,"InstagramUserId":null,"InstagramLoactionId":null,"TwitterUserName":"","FacebookUserName":null},
{"Name":"Larchmont Bungalow","Latitude":34.073327,"Longitude":-118.323903,"InstagramUserName":null,"InstagramUserId":null,"InstagramLoactionId":null,"TwitterUserName":"","FacebookUserName":null},
{"Name":"Mohawk Bend","Latitude":34.077664,"Longitude":-118.26479,"InstagramUserName":null,"InstagramUserId":null,"InstagramLoactionId":null,"TwitterUserName":"","FacebookUserName":null},
{"Name":"Lawry's Cavery","Latitude":34.044126,"Longitude":-118.265291,"InstagramUserName":null,"InstagramUserId":null,"InstagramLoactionId":null,"TwitterUserName":"","FacebookUserName":null},
{"Name":"Blu Jam Cafe","Latitude":34.08381,"Longitude":-118.350534,"InstagramUserName":null,"InstagramUserId":null,"InstagramLoactionId":null,"TwitterUserName":"","FacebookUserName":null},
{"Name":"Kang Ho Dong Baek Jeong","Latitude":34.063733,"Longitude":-118.297282,"InstagramUserName":null,"InstagramUserId":null,"InstagramLoactionId":null,"TwitterUserName":"","FacebookUserName":null},
{"Name":"Fig & olive","Latitude":34.083446,"Longitude":-118.376138,"InstagramUserName":null,"InstagramUserId":null,"InstagramLoactionId":null,"TwitterUserName":"","FacebookUserName":null},
    {"Name":"Peking Tavern","Latitude":34.042762,"Longitude":-118.253651,"InstagramUserName":null,"InstagramUserId":null,"InstagramLoactionId":null,"TwitterUserName":"","FacebookUserName":null}]